132	6.20	6.47	36.21	Good	62	30.77	14.14	45	0
123	0.05	4.61	13.69	Bad	    51	23.23	2.78	16	0
128	0.50	3.70	12.81	Average	66	21.25	22.73	28	0
114	9.60	2.51	29.18	Bad	    49	25.67	40.63	46	0
150	0.30	6.38	33.99	Good	62	24.64	0.00	50	0
